﻿{
    "DatabaseName": "testDg",
    "Settings": {
        "Iteration": 1000,
        "DateTimeFormat": "yyyy-MM-dd HH:mm:ss",
        "DateTimeMinValue": "2010-01-01 00:00:00",
        "DateTimeMaxValue": "2020-01-01 00:00:00"
    },
    "EntityDescriptions": [
        {
            "EntityName": "users",
            "NumberOfRecords": 1000,
            "PropertyDescriptions": [
                {
                    "PropertyName": "createdDate",
                    "ValueProviderName": "RandomDayDateTimeProvider"
                },
                {
                    "PropertyName": "id",
                    "ValueProviderName": "NumberIdentityProvider"
                },
                {
                    "PropertyName": "login",
                    "ValueProviderName": "RandomStringProvider",
                    "Settings": { "Length": "5", "Contains": "UpperLetters;LowerLetters;Numbers" }
                },
                {
                    "PropertyName": "roleId",
                    "ValueProviderName": "RandomProxyProvider",
                    "Settings": { "Entity": "roles", "Property": "id" }
                }
            ]
        },
        {
            "EntityName": "roles",
            "NumberOfRecords": 3,
            "PropertyDescriptions": [
                {
                    "PropertyName": "name",
                    "ValueProviderName": "CustomStringProvider",
                    "Settings": { "Values": "Admin;Manager;Viewer" }
                },
                {
                    "PropertyName": "id",
                    "ValueProviderName": "CustomStringProvider",
                    "Settings": { "Values": "1;2;3" }
                }
            ]
        },
        {
            "EntityName": "logins",
            "NumberOfRecords": 1000,
            "PropertyDescriptions": [
                {
                    "PropertyName": "userId",
                    "ValueProviderName": "RandomProxyProvider",
                    "Settings": { "Entity": "users", "Property": "id" }
                },
                {
                    "PropertyName": "loginDate",
                    "ValueProviderName": "RandomDayDateTimeProvider"
                }
            ]
        }
    ]
}